S134[0,0]=1/8 (3 czz[x,y,u,v] (-1+5 rbz[x,y,u,v]^2)+5 raz[x,y,u,v] rbz[x,y,u,v] (-3+7 rbz[x,y,u,v]^2))
S134[0,1]=1/8 Sqrt[3/2] (czx[x,y,u,v] (-1+5 rbz[x,y,u,v]^2)+5 rbx[x,y,u,v] (2 czz[x,y,u,v] rbz[x,y,u,v]+raz[x,y,u,v] (-1+7 rbz[x,y,u,v]^2)))
S134[0,2]=1/8 Sqrt[3/2] (czy[x,y,u,v] (-1+5 rbz[x,y,u,v]^2)+5 rby[x,y,u,v] (2 czz[x,y,u,v] rbz[x,y,u,v]+raz[x,y,u,v] (-1+7 rbz[x,y,u,v]^2)))
S134[0,3]=1/8 Sqrt[15] (czz[x,y,u,v] (rbx[x,y,u,v]^2-rby[x,y,u,v]^2)+(2 czx[x,y,u,v] rbx[x,y,u,v]-2 czy[x,y,u,v] rby[x,y,u,v]+7 raz[x,y,u,v] (rbx[x,y,u,v]^2-rby[x,y,u,v]^2)) rbz[x,y,u,v])
S134[0,4]=1/4 Sqrt[15] (czz[x,y,u,v] rbx[x,y,u,v] rby[x,y,u,v]+(czy[x,y,u,v] rbx[x,y,u,v]+(czx[x,y,u,v]+7 raz[x,y,u,v] rbx[x,y,u,v]) rby[x,y,u,v]) rbz[x,y,u,v])
S134[0,5]=1/8 Sqrt[5/2] (3 czx[x,y,u,v] (rbx[x,y,u,v]^2-rby[x,y,u,v]^2)+rbx[x,y,u,v] (-6 czy[x,y,u,v] rby[x,y,u,v]+7 raz[x,y,u,v] (rbx[x,y,u,v]^2-3 rby[x,y,u,v]^2)))
S134[0,6]=1/8 Sqrt[5/2] (3 czy[x,y,u,v] (rbx[x,y,u,v]^2-rby[x,y,u,v]^2)+rby[x,y,u,v] (6 czx[x,y,u,v] rbx[x,y,u,v]+7 raz[x,y,u,v] (3 rbx[x,y,u,v]^2-rby[x,y,u,v]^2)))
S134[1,0]=1/8 (3 cxz[x,y,u,v] (-1+5 rbz[x,y,u,v]^2)+5 rax[x,y,u,v] rbz[x,y,u,v] (-3+7 rbz[x,y,u,v]^2))
S134[1,1]=1/8 Sqrt[3/2] (cxx[x,y,u,v] (-1+5 rbz[x,y,u,v]^2)+5 rbx[x,y,u,v] (2 cxz[x,y,u,v] rbz[x,y,u,v]+rax[x,y,u,v] (-1+7 rbz[x,y,u,v]^2)))
S134[1,2]=1/8 Sqrt[3/2] (cxy[x,y,u,v] (-1+5 rbz[x,y,u,v]^2)+5 rby[x,y,u,v] (2 cxz[x,y,u,v] rbz[x,y,u,v]+rax[x,y,u,v] (-1+7 rbz[x,y,u,v]^2)))
S134[1,3]=1/8 Sqrt[15] (cxz[x,y,u,v] (rbx[x,y,u,v]^2-rby[x,y,u,v]^2)+(2 cxx[x,y,u,v] rbx[x,y,u,v]-2 cxy[x,y,u,v] rby[x,y,u,v]+7 rax[x,y,u,v] (rbx[x,y,u,v]^2-rby[x,y,u,v]^2)) rbz[x,y,u,v])
S134[1,4]=1/4 Sqrt[15] (cxz[x,y,u,v] rbx[x,y,u,v] rby[x,y,u,v]+(cxy[x,y,u,v] rbx[x,y,u,v]+(cxx[x,y,u,v]+7 rax[x,y,u,v] rbx[x,y,u,v]) rby[x,y,u,v]) rbz[x,y,u,v])
S134[1,5]=1/8 Sqrt[5/2] (3 cxx[x,y,u,v] (rbx[x,y,u,v]^2-rby[x,y,u,v]^2)+rbx[x,y,u,v] (-6 cxy[x,y,u,v] rby[x,y,u,v]+7 rax[x,y,u,v] (rbx[x,y,u,v]^2-3 rby[x,y,u,v]^2)))
S134[1,6]=1/8 Sqrt[5/2] (3 cxy[x,y,u,v] (rbx[x,y,u,v]^2-rby[x,y,u,v]^2)+rby[x,y,u,v] (6 cxx[x,y,u,v] rbx[x,y,u,v]+7 rax[x,y,u,v] (3 rbx[x,y,u,v]^2-rby[x,y,u,v]^2)))
S134[2,0]=1/8 (3 cyz[x,y,u,v] (-1+5 rbz[x,y,u,v]^2)+5 ray[x,y,u,v] rbz[x,y,u,v] (-3+7 rbz[x,y,u,v]^2))
S134[2,1]=1/8 Sqrt[3/2] (cyx[x,y,u,v] (-1+5 rbz[x,y,u,v]^2)+5 rbx[x,y,u,v] (2 cyz[x,y,u,v] rbz[x,y,u,v]+ray[x,y,u,v] (-1+7 rbz[x,y,u,v]^2)))
S134[2,2]=1/8 Sqrt[3/2] (cyy[x,y,u,v] (-1+5 rbz[x,y,u,v]^2)+5 rby[x,y,u,v] (2 cyz[x,y,u,v] rbz[x,y,u,v]+ray[x,y,u,v] (-1+7 rbz[x,y,u,v]^2)))
S134[2,3]=1/8 Sqrt[15] (cyz[x,y,u,v] (rbx[x,y,u,v]^2-rby[x,y,u,v]^2)+(2 cyx[x,y,u,v] rbx[x,y,u,v]-2 cyy[x,y,u,v] rby[x,y,u,v]+7 ray[x,y,u,v] (rbx[x,y,u,v]^2-rby[x,y,u,v]^2)) rbz[x,y,u,v])
S134[2,4]=1/4 Sqrt[15] (cyz[x,y,u,v] rbx[x,y,u,v] rby[x,y,u,v]+(cyy[x,y,u,v] rbx[x,y,u,v]+(cyx[x,y,u,v]+7 ray[x,y,u,v] rbx[x,y,u,v]) rby[x,y,u,v]) rbz[x,y,u,v])
S134[2,5]=1/8 Sqrt[5/2] (3 cyx[x,y,u,v] (rbx[x,y,u,v]^2-rby[x,y,u,v]^2)+rbx[x,y,u,v] (-6 cyy[x,y,u,v] rby[x,y,u,v]+7 ray[x,y,u,v] (rbx[x,y,u,v]^2-3 rby[x,y,u,v]^2)))
S134[2,6]=1/8 Sqrt[5/2] (3 cyy[x,y,u,v] (rbx[x,y,u,v]^2-rby[x,y,u,v]^2)+rby[x,y,u,v] (6 cyx[x,y,u,v] rbx[x,y,u,v]+7 ray[x,y,u,v] (3 rbx[x,y,u,v]^2-rby[x,y,u,v]^2)))