 80
   1  Energy =     -113.7404672785  kJ/mol
C    4.4199953  -1.3383157   5.7154001
O    3.6075759  -1.3383157   6.6803071
N    5.4917856  -2.1502324   5.7030438
H    5.6467763  -2.7712801   6.4831992
H    6.1315239  -2.1402203   4.9276774
N    4.2496320  -0.5264097   4.6571567
H    3.4544797   0.0946381   4.6373178
H    4.9046899  -0.5364217   3.8947022
C    8.5140333   1.4441194   5.1714588
O    9.3264527   1.4441088   4.2065570
N    8.6843966   2.2560255   6.2296968
H    9.4795490   2.8770732   6.2495357
H    8.0293281   2.2460082   6.9921513
N    7.4422430   0.6321922   5.1838203
H    7.2872523   0.0111656   4.4036649
H    6.8024942   0.6422148   5.9591867
C    0.0807419  -1.3912334   2.0640770
O   -0.7316775  -1.3912334   3.0289841
N    1.1525322  -2.2031501   2.0517207
H    1.3075229  -2.8241978   2.8318762
H    1.7922704  -2.1931381   1.2763544
N   -0.0896215  -0.5793274   1.0058337
H   -0.8847738   0.0417203   0.9859948
H    0.5654365  -0.5893394   0.2433792
C    4.1747799   1.3912017   1.5201357
O    4.9871992   1.3911911   0.5552339
N    4.3451432   2.2031078   2.5783738
H    5.1402955   2.8241555   2.5982127
H    3.6900747   2.1930904   3.3408283
N    3.1029896   0.5792745   1.5324973
H    2.9479988  -0.0417521   0.7523419
H    2.4632407   0.5892971   2.3078637
C    0.0807419   4.1737374   2.0640770
O   -0.7316775   4.1737374   3.0289841
N    1.1525322   3.3618207   2.0517207
H    1.3075229   2.7407730   2.8318762
H    1.7922704   3.3718328   1.2763544
N   -0.0896215   4.9856435   1.0058337
H   -0.8847738   5.6066912   0.9859948
H    0.5654365   4.9756314   0.2433792
C    4.1747799   6.9561725   1.5201357
O    4.9871992   6.9561620   0.5552339
N    4.3451432   7.7680786   2.5783738
H    5.1402955   8.3891263   2.5982127
H    3.6900747   7.7580613   3.3408283
N    3.1029896   6.1442453   1.5324973
H    2.9479988   5.5232188   0.7523419
H    2.4632407   6.1542679   2.3078637
C    7.3545668  -1.3912334   2.0640770
O    6.5421474  -1.3912334   3.0289841
N    8.4263571  -2.2031501   2.0517207
H    8.5813478  -2.8241978   2.8318762
H    9.0660954  -2.1931381   1.2763544
N    7.1842035  -0.5793274   1.0058337
H    6.3890512   0.0417203   0.9859948
H    7.8392614  -0.5893394   0.2433792
C   11.4486048   1.3912017   1.5201357
O   12.2610242   1.3911911   0.5552339
N   11.6189681   2.2031078   2.5783738
H   12.4141205   2.8241555   2.5982127
H   10.9638996   2.1930904   3.3408283
N   10.3768145   0.5792745   1.5324973
H   10.2218238  -0.0417521   0.7523419
H    9.7370657   0.5892971   2.3078637
C    7.3545668   4.1737374   2.0640770
O    6.5421474   4.1737374   3.0289841
N    8.4263571   3.3618207   2.0517207
H    8.5813478   2.7407730   2.8318762
H    9.0660954   3.3718328   1.2763544
N    7.1842035   4.9856435   1.0058337
H    6.3890512   5.6066912   0.9859948
H    7.8392614   4.9756314   0.2433792
C   11.4486048   6.9561725   1.5201357
O   12.2610242   6.9561620   0.5552339
N   11.6189681   7.7680786   2.5783738
H   12.4141205   8.3891263   2.5982127
H   10.9638996   7.7580613   3.3408283
N   10.3768145   6.1442453   1.5324973
H   10.2218238   5.5232188   0.7523419
H    9.7370657   6.1542679   2.3078637
 80
  15  Energy =     -114.9764451568  kJ/mol
C    4.3032446  -1.3897775   5.6576148
O    3.4908253  -1.3897775   6.6225219
N    5.3750349  -2.2016942   5.6452585
H    5.5300257  -2.8227419   6.4254140
H    6.0147732  -2.1916821   4.8698921
N    4.1328813  -0.5778714   4.5993714
H    3.3377290   0.0431763   4.5795326
H    4.7879392  -0.5878835   3.8369170
C    8.3972826   1.3926576   5.1136735
O    9.2097020   1.3926470   4.1487717
N    8.5676460   2.2045637   6.1719116
H    9.3627983   2.8256114   6.1917504
H    7.9125774   2.1945464   6.9343660
N    7.3254923   0.5807304   5.1260351
H    7.1705016  -0.0402962   4.3458797
H    6.6857435   0.5907530   5.9014015
C    0.0807419  -1.3912334   2.0640770
O   -0.7316775  -1.3912334   3.0289841
N    1.1525322  -2.2031501   2.0517207
H    1.3075229  -2.8241978   2.8318762
H    1.7922704  -2.1931381   1.2763544
N   -0.0896215  -0.5793274   1.0058337
H   -0.8847738   0.0417203   0.9859948
H    0.5654365  -0.5893394   0.2433792
C    4.1747799   1.3912017   1.5201357
O    4.9871992   1.3911911   0.5552339
N    4.3451432   2.2031078   2.5783738
H    5.1402955   2.8241555   2.5982127
H    3.6900747   2.1930904   3.3408283
N    3.1029896   0.5792745   1.5324973
H    2.9479988  -0.0417521   0.7523419
H    2.4632407   0.5892971   2.3078637
C    0.0807419   4.1737374   2.0640770
O   -0.7316775   4.1737374   3.0289841
N    1.1525322   3.3618207   2.0517207
H    1.3075229   2.7407730   2.8318762
H    1.7922704   3.3718328   1.2763544
N   -0.0896215   4.9856435   1.0058337
H   -0.8847738   5.6066912   0.9859948
H    0.5654365   4.9756314   0.2433792
C    4.1747799   6.9561725   1.5201357
O    4.9871992   6.9561620   0.5552339
N    4.3451432   7.7680786   2.5783738
H    5.1402955   8.3891263   2.5982127
H    3.6900747   7.7580613   3.3408283
N    3.1029896   6.1442453   1.5324973
H    2.9479988   5.5232188   0.7523419
H    2.4632407   6.1542679   2.3078637
C    7.3545668  -1.3912334   2.0640770
O    6.5421474  -1.3912334   3.0289841
N    8.4263571  -2.2031501   2.0517207
H    8.5813478  -2.8241978   2.8318762
H    9.0660954  -2.1931381   1.2763544
N    7.1842035  -0.5793274   1.0058337
H    6.3890512   0.0417203   0.9859948
H    7.8392614  -0.5893394   0.2433792
C   11.4486048   1.3912017   1.5201357
O   12.2610242   1.3911911   0.5552339
N   11.6189681   2.2031078   2.5783738
H   12.4141205   2.8241555   2.5982127
H   10.9638996   2.1930904   3.3408283
N   10.3768145   0.5792745   1.5324973
H   10.2218238  -0.0417521   0.7523419
H    9.7370657   0.5892971   2.3078637
C    7.3545668   4.1737374   2.0640770
O    6.5421474   4.1737374   3.0289841
N    8.4263571   3.3618207   2.0517207
H    8.5813478   2.7407730   2.8318762
H    9.0660954   3.3718328   1.2763544
N    7.1842035   4.9856435   1.0058337
H    6.3890512   5.6066912   0.9859948
H    7.8392614   4.9756314   0.2433792
C   11.4486048   6.9561725   1.5201357
O   12.2610242   6.9561620   0.5552339
N   11.6189681   7.7680786   2.5783738
H   12.4141205   8.3891263   2.5982127
H   10.9638996   7.7580613   3.3408283
N   10.3768145   6.1442453   1.5324973
H   10.2218238   5.5232188   0.7523419
H    9.7370657   6.1542679   2.3078637
 80
  22  Energy =     -114.9768575745  kJ/mol
C    4.2929355  -1.3917271   5.6653121
O    3.4805162  -1.3917271   6.6302192
N    5.3647259  -2.2036438   5.6529559
H    5.5197166  -2.8246915   6.4331113
H    6.0044641  -2.1936318   4.8775895
N    4.1225722  -0.5798211   4.6070688
H    3.3274199   0.0412267   4.5872299
H    4.7776302  -0.5898331   3.8446143
C    8.3869735   1.3907080   5.1213708
O    9.1993929   1.3906974   4.1564690
N    8.5573369   2.2026141   6.1796089
H    9.3524892   2.8236618   6.1994478
H    7.9022684   2.1925968   6.9420634
N    7.3151832   0.5787808   5.1337324
H    7.1601925  -0.0422458   4.3535770
H    6.6754344   0.5888034   5.9090988
C    0.0807419  -1.3912334   2.0640770
O   -0.7316775  -1.3912334   3.0289841
N    1.1525322  -2.2031501   2.0517207
H    1.3075229  -2.8241978   2.8318762
H    1.7922704  -2.1931381   1.2763544
N   -0.0896215  -0.5793274   1.0058337
H   -0.8847738   0.0417203   0.9859948
H    0.5654365  -0.5893394   0.2433792
C    4.1747799   1.3912017   1.5201357
O    4.9871992   1.3911911   0.5552339
N    4.3451432   2.2031078   2.5783738
H    5.1402955   2.8241555   2.5982127
H    3.6900747   2.1930904   3.3408283
N    3.1029896   0.5792745   1.5324973
H    2.9479988  -0.0417521   0.7523419
H    2.4632407   0.5892971   2.3078637
C    0.0807419   4.1737374   2.0640770
O   -0.7316775   4.1737374   3.0289841
N    1.1525322   3.3618207   2.0517207
H    1.3075229   2.7407730   2.8318762
H    1.7922704   3.3718328   1.2763544
N   -0.0896215   4.9856435   1.0058337
H   -0.8847738   5.6066912   0.9859948
H    0.5654365   4.9756314   0.2433792
C    4.1747799   6.9561725   1.5201357
O    4.9871992   6.9561620   0.5552339
N    4.3451432   7.7680786   2.5783738
H    5.1402955   8.3891263   2.5982127
H    3.6900747   7.7580613   3.3408283
N    3.1029896   6.1442453   1.5324973
H    2.9479988   5.5232188   0.7523419
H    2.4632407   6.1542679   2.3078637
C    7.3545668  -1.3912334   2.0640770
O    6.5421474  -1.3912334   3.0289841
N    8.4263571  -2.2031501   2.0517207
H    8.5813478  -2.8241978   2.8318762
H    9.0660954  -2.1931381   1.2763544
N    7.1842035  -0.5793274   1.0058337
H    6.3890512   0.0417203   0.9859948
H    7.8392614  -0.5893394   0.2433792
C   11.4486048   1.3912017   1.5201357
O   12.2610242   1.3911911   0.5552339
N   11.6189681   2.2031078   2.5783738
H   12.4141205   2.8241555   2.5982127
H   10.9638996   2.1930904   3.3408283
N   10.3768145   0.5792745   1.5324973
H   10.2218238  -0.0417521   0.7523419
H    9.7370657   0.5892971   2.3078637
C    7.3545668   4.1737374   2.0640770
O    6.5421474   4.1737374   3.0289841
N    8.4263571   3.3618207   2.0517207
H    8.5813478   2.7407730   2.8318762
H    9.0660954   3.3718328   1.2763544
N    7.1842035   4.9856435   1.0058337
H    6.3890512   5.6066912   0.9859948
H    7.8392614   4.9756314   0.2433792
C   11.4486048   6.9561725   1.5201357
O   12.2610242   6.9561620   0.5552339
N   11.6189681   7.7680786   2.5783738
H   12.4141205   8.3891263   2.5982127
H   10.9638996   7.7580613   3.3408283
N   10.3768145   6.1442453   1.5324973
H   10.2218238   5.5232188   0.7523419
H    9.7370657   6.1542679   2.3078637
 80
  29  Energy =     -114.9811365319  kJ/mol
C    4.2979910  -1.3907711   5.6615375
O    3.4855716  -1.3907711   6.6264446
N    5.3697813  -2.2026877   5.6491812
H    5.5247720  -2.8237354   6.4293366
H    6.0095195  -2.1926757   4.8738148
N    4.1276276  -0.5788650   4.6032941
H    3.3324753   0.0421827   4.5834553
H    4.7826856  -0.5888770   3.8408397
C    8.3920290   1.3916641   5.1175962
O    9.2044483   1.3916535   4.1526944
N    8.5623923   2.2035701   6.1758343
H    9.3575446   2.8246179   6.1956731
H    7.9073238   2.1935528   6.9382887
N    7.3202386   0.5797368   5.1299578
H    7.1652479  -0.0412897   4.3498023
H    6.6804898   0.5897595   5.9053242
C    0.0807419  -1.3912334   2.0640770
O   -0.7316775  -1.3912334   3.0289841
N    1.1525322  -2.2031501   2.0517207
H    1.3075229  -2.8241978   2.8318762
H    1.7922704  -2.1931381   1.2763544
N   -0.0896215  -0.5793274   1.0058337
H   -0.8847738   0.0417203   0.9859948
H    0.5654365  -0.5893394   0.2433792
C    4.1747799   1.3912017   1.5201357
O    4.9871992   1.3911911   0.5552339
N    4.3451432   2.2031078   2.5783738
H    5.1402955   2.8241555   2.5982127
H    3.6900747   2.1930904   3.3408283
N    3.1029896   0.5792745   1.5324973
H    2.9479988  -0.0417521   0.7523419
H    2.4632407   0.5892971   2.3078637
C    0.0807419   4.1737374   2.0640770
O   -0.7316775   4.1737374   3.0289841
N    1.1525322   3.3618207   2.0517207
H    1.3075229   2.7407730   2.8318762
H    1.7922704   3.3718328   1.2763544
N   -0.0896215   4.9856435   1.0058337
H   -0.8847738   5.6066912   0.9859948
H    0.5654365   4.9756314   0.2433792
C    4.1747799   6.9561725   1.5201357
O    4.9871992   6.9561620   0.5552339
N    4.3451432   7.7680786   2.5783738
H    5.1402955   8.3891263   2.5982127
H    3.6900747   7.7580613   3.3408283
N    3.1029896   6.1442453   1.5324973
H    2.9479988   5.5232188   0.7523419
H    2.4632407   6.1542679   2.3078637
C    7.3545668  -1.3912334   2.0640770
O    6.5421474  -1.3912334   3.0289841
N    8.4263571  -2.2031501   2.0517207
H    8.5813478  -2.8241978   2.8318762
H    9.0660954  -2.1931381   1.2763544
N    7.1842035  -0.5793274   1.0058337
H    6.3890512   0.0417203   0.9859948
H    7.8392614  -0.5893394   0.2433792
C   11.4486048   1.3912017   1.5201357
O   12.2610242   1.3911911   0.5552339
N   11.6189681   2.2031078   2.5783738
H   12.4141205   2.8241555   2.5982127
H   10.9638996   2.1930904   3.3408283
N   10.3768145   0.5792745   1.5324973
H   10.2218238  -0.0417521   0.7523419
H    9.7370657   0.5892971   2.3078637
C    7.3545668   4.1737374   2.0640770
O    6.5421474   4.1737374   3.0289841
N    8.4263571   3.3618207   2.0517207
H    8.5813478   2.7407730   2.8318762
H    9.0660954   3.3718328   1.2763544
N    7.1842035   4.9856435   1.0058337
H    6.3890512   5.6066912   0.9859948
H    7.8392614   4.9756314   0.2433792
C   11.4486048   6.9561725   1.5201357
O   12.2610242   6.9561620   0.5552339
N   11.6189681   7.7680786   2.5783738
H   12.4141205   8.3891263   2.5982127
H   10.9638996   7.7580613   3.3408283
N   10.3768145   6.1442453   1.5324973
H   10.2218238   5.5232188   0.7523419
H    9.7370657   6.1542679   2.3078637
 80
  36  Energy =     -114.9819008170  kJ/mol
C    4.2949930  -1.3916756   5.6595544
O    3.4825736  -1.3916756   6.6244615
N    5.3667833  -2.2035923   5.6471981
H    5.5217741  -2.8246400   6.4273536
H    6.0065216  -2.1935802   4.8718318
N    4.1246297  -0.5797695   4.6013111
H    3.3294774   0.0412782   4.5814722
H    4.7796876  -0.5897816   3.8388566
C    8.3890310   1.3907595   5.1156131
O    9.2014504   1.3907489   4.1507113
N    8.5593943   2.2026656   6.1738512
H    9.3545467   2.8237133   6.1936901
H    7.9043258   2.1926483   6.9363057
N    7.3172407   0.5788323   5.1279747
H    7.1622500  -0.0421943   4.3478193
H    6.6774919   0.5888549   5.9033411
C    0.0807419  -1.3912334   2.0640770
O   -0.7316775  -1.3912334   3.0289841
N    1.1525322  -2.2031501   2.0517207
H    1.3075229  -2.8241978   2.8318762
H    1.7922704  -2.1931381   1.2763544
N   -0.0896215  -0.5793274   1.0058337
H   -0.8847738   0.0417203   0.9859948
H    0.5654365  -0.5893394   0.2433792
C    4.1747799   1.3912017   1.5201357
O    4.9871992   1.3911911   0.5552339
N    4.3451432   2.2031078   2.5783738
H    5.1402955   2.8241555   2.5982127
H    3.6900747   2.1930904   3.3408283
N    3.1029896   0.5792745   1.5324973
H    2.9479988  -0.0417521   0.7523419
H    2.4632407   0.5892971   2.3078637
C    0.0807419   4.1737374   2.0640770
O   -0.7316775   4.1737374   3.0289841
N    1.1525322   3.3618207   2.0517207
H    1.3075229   2.7407730   2.8318762
H    1.7922704   3.3718328   1.2763544
N   -0.0896215   4.9856435   1.0058337
H   -0.8847738   5.6066912   0.9859948
H    0.5654365   4.9756314   0.2433792
C    4.1747799   6.9561725   1.5201357
O    4.9871992   6.9561620   0.5552339
N    4.3451432   7.7680786   2.5783738
H    5.1402955   8.3891263   2.5982127
H    3.6900747   7.7580613   3.3408283
N    3.1029896   6.1442453   1.5324973
H    2.9479988   5.5232188   0.7523419
H    2.4632407   6.1542679   2.3078637
C    7.3545668  -1.3912334   2.0640770
O    6.5421474  -1.3912334   3.0289841
N    8.4263571  -2.2031501   2.0517207
H    8.5813478  -2.8241978   2.8318762
H    9.0660954  -2.1931381   1.2763544
N    7.1842035  -0.5793274   1.0058337
H    6.3890512   0.0417203   0.9859948
H    7.8392614  -0.5893394   0.2433792
C   11.4486048   1.3912017   1.5201357
O   12.2610242   1.3911911   0.5552339
N   11.6189681   2.2031078   2.5783738
H   12.4141205   2.8241555   2.5982127
H   10.9638996   2.1930904   3.3408283
N   10.3768145   0.5792745   1.5324973
H   10.2218238  -0.0417521   0.7523419
H    9.7370657   0.5892971   2.3078637
C    7.3545668   4.1737374   2.0640770
O    6.5421474   4.1737374   3.0289841
N    8.4263571   3.3618207   2.0517207
H    8.5813478   2.7407730   2.8318762
H    9.0660954   3.3718328   1.2763544
N    7.1842035   4.9856435   1.0058337
H    6.3890512   5.6066912   0.9859948
H    7.8392614   4.9756314   0.2433792
C   11.4486048   6.9561725   1.5201357
O   12.2610242   6.9561620   0.5552339
N   11.6189681   7.7680786   2.5783738
H   12.4141205   8.3891263   2.5982127
H   10.9638996   7.7580613   3.3408283
N   10.3768145   6.1442453   1.5324973
H   10.2218238   5.5232188   0.7523419
H    9.7370657   6.1542679   2.3078637
 80
  43  Energy =     -114.9819255347  kJ/mol
C    4.2950265  -1.3911281   5.6596491
O    3.4826071  -1.3911281   6.6245561
N    5.3668168  -2.2030448   5.6472928
H    5.5218075  -2.8240925   6.4274482
H    6.0065551  -2.1930327   4.8719264
N    4.1246632  -0.5792220   4.6014057
H    3.3295109   0.0418257   4.5815668
H    4.7797211  -0.5892341   3.8389512
C    8.3890645   1.3913070   5.1157078
O    9.2014839   1.3912965   4.1508060
N    8.5594278   2.2032131   6.1739458
H    9.3545802   2.8242608   6.1937847
H    7.9043593   2.1931958   6.9364003
N    7.3172742   0.5793798   5.1280693
H    7.1622835  -0.0416467   4.3479139
H    6.6775254   0.5894024   5.9034357
C    0.0807419  -1.3912334   2.0640770
O   -0.7316775  -1.3912334   3.0289841
N    1.1525322  -2.2031501   2.0517207
H    1.3075229  -2.8241978   2.8318762
H    1.7922704  -2.1931381   1.2763544
N   -0.0896215  -0.5793274   1.0058337
H   -0.8847738   0.0417203   0.9859948
H    0.5654365  -0.5893394   0.2433792
C    4.1747799   1.3912017   1.5201357
O    4.9871992   1.3911911   0.5552339
N    4.3451432   2.2031078   2.5783738
H    5.1402955   2.8241555   2.5982127
H    3.6900747   2.1930904   3.3408283
N    3.1029896   0.5792745   1.5324973
H    2.9479988  -0.0417521   0.7523419
H    2.4632407   0.5892971   2.3078637
C    0.0807419   4.1737374   2.0640770
O   -0.7316775   4.1737374   3.0289841
N    1.1525322   3.3618207   2.0517207
H    1.3075229   2.7407730   2.8318762
H    1.7922704   3.3718328   1.2763544
N   -0.0896215   4.9856435   1.0058337
H   -0.8847738   5.6066912   0.9859948
H    0.5654365   4.9756314   0.2433792
C    4.1747799   6.9561725   1.5201357
O    4.9871992   6.9561620   0.5552339
N    4.3451432   7.7680786   2.5783738
H    5.1402955   8.3891263   2.5982127
H    3.6900747   7.7580613   3.3408283
N    3.1029896   6.1442453   1.5324973
H    2.9479988   5.5232188   0.7523419
H    2.4632407   6.1542679   2.3078637
C    7.3545668  -1.3912334   2.0640770
O    6.5421474  -1.3912334   3.0289841
N    8.4263571  -2.2031501   2.0517207
H    8.5813478  -2.8241978   2.8318762
H    9.0660954  -2.1931381   1.2763544
N    7.1842035  -0.5793274   1.0058337
H    6.3890512   0.0417203   0.9859948
H    7.8392614  -0.5893394   0.2433792
C   11.4486048   1.3912017   1.5201357
O   12.2610242   1.3911911   0.5552339
N   11.6189681   2.2031078   2.5783738
H   12.4141205   2.8241555   2.5982127
H   10.9638996   2.1930904   3.3408283
N   10.3768145   0.5792745   1.5324973
H   10.2218238  -0.0417521   0.7523419
H    9.7370657   0.5892971   2.3078637
C    7.3545668   4.1737374   2.0640770
O    6.5421474   4.1737374   3.0289841
N    8.4263571   3.3618207   2.0517207
H    8.5813478   2.7407730   2.8318762
H    9.0660954   3.3718328   1.2763544
N    7.1842035   4.9856435   1.0058337
H    6.3890512   5.6066912   0.9859948
H    7.8392614   4.9756314   0.2433792
C   11.4486048   6.9561725   1.5201357
O   12.2610242   6.9561620   0.5552339
N   11.6189681   7.7680786   2.5783738
H   12.4141205   8.3891263   2.5982127
H   10.9638996   7.7580613   3.3408283
N   10.3768145   6.1442453   1.5324973
H   10.2218238   5.5232188   0.7523419
H    9.7370657   6.1542679   2.3078637
 80
  50  Energy =     -114.9819256109  kJ/mol
C    4.2950151  -1.3910970   5.6596460
O    3.4825957  -1.3910970   6.6245531
N    5.3668054  -2.2030137   5.6472897
H    5.5217961  -2.8240614   6.4274451
H    6.0065436  -2.1930016   4.8719233
N    4.1246517  -0.5791909   4.6014026
H    3.3294994   0.0418568   4.5815638
H    4.7797097  -0.5892030   3.8389481
C    8.3890531   1.3913382   5.1157047
O    9.2014724   1.3913276   4.1508029
N    8.5594164   2.2032442   6.1739428
H    9.3545687   2.8242919   6.1937816
H    7.9043479   2.1932269   6.9363972
N    7.3172628   0.5794109   5.1280663
H    7.1622720  -0.0416156   4.3479108
H    6.6775139   0.5894335   5.9034326
C    0.0807419  -1.3912334   2.0640770
O   -0.7316775  -1.3912334   3.0289841
N    1.1525322  -2.2031501   2.0517207
H    1.3075229  -2.8241978   2.8318762
H    1.7922704  -2.1931381   1.2763544
N   -0.0896215  -0.5793274   1.0058337
H   -0.8847738   0.0417203   0.9859948
H    0.5654365  -0.5893394   0.2433792
C    4.1747799   1.3912017   1.5201357
O    4.9871992   1.3911911   0.5552339
N    4.3451432   2.2031078   2.5783738
H    5.1402955   2.8241555   2.5982127
H    3.6900747   2.1930904   3.3408283
N    3.1029896   0.5792745   1.5324973
H    2.9479988  -0.0417521   0.7523419
H    2.4632407   0.5892971   2.3078637
C    0.0807419   4.1737374   2.0640770
O   -0.7316775   4.1737374   3.0289841
N    1.1525322   3.3618207   2.0517207
H    1.3075229   2.7407730   2.8318762
H    1.7922704   3.3718328   1.2763544
N   -0.0896215   4.9856435   1.0058337
H   -0.8847738   5.6066912   0.9859948
H    0.5654365   4.9756314   0.2433792
C    4.1747799   6.9561725   1.5201357
O    4.9871992   6.9561620   0.5552339
N    4.3451432   7.7680786   2.5783738
H    5.1402955   8.3891263   2.5982127
H    3.6900747   7.7580613   3.3408283
N    3.1029896   6.1442453   1.5324973
H    2.9479988   5.5232188   0.7523419
H    2.4632407   6.1542679   2.3078637
C    7.3545668  -1.3912334   2.0640770
O    6.5421474  -1.3912334   3.0289841
N    8.4263571  -2.2031501   2.0517207
H    8.5813478  -2.8241978   2.8318762
H    9.0660954  -2.1931381   1.2763544
N    7.1842035  -0.5793274   1.0058337
H    6.3890512   0.0417203   0.9859948
H    7.8392614  -0.5893394   0.2433792
C   11.4486048   1.3912017   1.5201357
O   12.2610242   1.3911911   0.5552339
N   11.6189681   2.2031078   2.5783738
H   12.4141205   2.8241555   2.5982127
H   10.9638996   2.1930904   3.3408283
N   10.3768145   0.5792745   1.5324973
H   10.2218238  -0.0417521   0.7523419
H    9.7370657   0.5892971   2.3078637
C    7.3545668   4.1737374   2.0640770
O    6.5421474   4.1737374   3.0289841
N    8.4263571   3.3618207   2.0517207
H    8.5813478   2.7407730   2.8318762
H    9.0660954   3.3718328   1.2763544
N    7.1842035   4.9856435   1.0058337
H    6.3890512   5.6066912   0.9859948
H    7.8392614   4.9756314   0.2433792
C   11.4486048   6.9561725   1.5201357
O   12.2610242   6.9561620   0.5552339
N   11.6189681   7.7680786   2.5783738
H   12.4141205   8.3891263   2.5982127
H   10.9638996   7.7580613   3.3408283
N   10.3768145   6.1442453   1.5324973
H   10.2218238   5.5232188   0.7523419
H    9.7370657   6.1542679   2.3078637
 80
  56  Energy =     -114.9819256109  kJ/mol
C    4.2950151  -1.3910970   5.6596460
O    3.4825957  -1.3910970   6.6245531
N    5.3668054  -2.2030137   5.6472897
H    5.5217961  -2.8240614   6.4274451
H    6.0065436  -2.1930016   4.8719233
N    4.1246517  -0.5791909   4.6014026
H    3.3294994   0.0418568   4.5815638
H    4.7797097  -0.5892030   3.8389481
C    8.3890531   1.3913382   5.1157047
O    9.2014724   1.3913276   4.1508029
N    8.5594164   2.2032442   6.1739428
H    9.3545687   2.8242919   6.1937816
H    7.9043479   2.1932269   6.9363972
N    7.3172628   0.5794109   5.1280663
H    7.1622720  -0.0416156   4.3479108
H    6.6775139   0.5894335   5.9034326
C    0.0807419  -1.3912334   2.0640770
O   -0.7316775  -1.3912334   3.0289841
N    1.1525322  -2.2031501   2.0517207
H    1.3075229  -2.8241978   2.8318762
H    1.7922704  -2.1931381   1.2763544
N   -0.0896215  -0.5793274   1.0058337
H   -0.8847738   0.0417203   0.9859948
H    0.5654365  -0.5893394   0.2433792
C    4.1747799   1.3912017   1.5201357
O    4.9871992   1.3911911   0.5552339
N    4.3451432   2.2031078   2.5783738
H    5.1402955   2.8241555   2.5982127
H    3.6900747   2.1930904   3.3408283
N    3.1029896   0.5792745   1.5324973
H    2.9479988  -0.0417521   0.7523419
H    2.4632407   0.5892971   2.3078637
C    0.0807419   4.1737374   2.0640770
O   -0.7316775   4.1737374   3.0289841
N    1.1525322   3.3618207   2.0517207
H    1.3075229   2.7407730   2.8318762
H    1.7922704   3.3718328   1.2763544
N   -0.0896215   4.9856435   1.0058337
H   -0.8847738   5.6066912   0.9859948
H    0.5654365   4.9756314   0.2433792
C    4.1747799   6.9561725   1.5201357
O    4.9871992   6.9561620   0.5552339
N    4.3451432   7.7680786   2.5783738
H    5.1402955   8.3891263   2.5982127
H    3.6900747   7.7580613   3.3408283
N    3.1029896   6.1442453   1.5324973
H    2.9479988   5.5232188   0.7523419
H    2.4632407   6.1542679   2.3078637
C    7.3545668  -1.3912334   2.0640770
O    6.5421474  -1.3912334   3.0289841
N    8.4263571  -2.2031501   2.0517207
H    8.5813478  -2.8241978   2.8318762
H    9.0660954  -2.1931381   1.2763544
N    7.1842035  -0.5793274   1.0058337
H    6.3890512   0.0417203   0.9859948
H    7.8392614  -0.5893394   0.2433792
C   11.4486048   1.3912017   1.5201357
O   12.2610242   1.3911911   0.5552339
N   11.6189681   2.2031078   2.5783738
H   12.4141205   2.8241555   2.5982127
H   10.9638996   2.1930904   3.3408283
N   10.3768145   0.5792745   1.5324973
H   10.2218238  -0.0417521   0.7523419
H    9.7370657   0.5892971   2.3078637
C    7.3545668   4.1737374   2.0640770
O    6.5421474   4.1737374   3.0289841
N    8.4263571   3.3618207   2.0517207
H    8.5813478   2.7407730   2.8318762
H    9.0660954   3.3718328   1.2763544
N    7.1842035   4.9856435   1.0058337
H    6.3890512   5.6066912   0.9859948
H    7.8392614   4.9756314   0.2433792
C   11.4486048   6.9561725   1.5201357
O   12.2610242   6.9561620   0.5552339
N   11.6189681   7.7680786   2.5783738
H   12.4141205   8.3891263   2.5982127
H   10.9638996   7.7580613   3.3408283
N   10.3768145   6.1442453   1.5324973
H   10.2218238   5.5232188   0.7523419
H    9.7370657   6.1542679   2.3078637
